%
G00 Z   0.100 (retract) 
G00 X0 Y0 (HOME) 
G01 X   1.000 Y   0.973 F15
G01 Z  -0.200 F5 (plung)
G01 X   1.024 Y   0.986 F15
G01 Y   1.014 F15
G01 X   1.000 Y   1.028 F15
G01 X   0.976 Y   1.014 F15
G01 Y   0.986 F15
G01 X   1.000 Y   0.973 F15
G01 Y   0.926 F15
G01 X   1.064 Y   0.963 F15
G01 Y   1.037 F15
G01 X   1.000 Y   1.074 F15
G01 X   0.936 Y   1.037 F15
G01 Y   0.963 F15
G01 X   1.000 Y   0.926 F15
G01 Y   0.879 F15
G01 X   1.105 Y   0.940 F15
G01 Y   1.061 F15
G01 X   1.000 Y   1.121 F15
G01 X   0.895 Y   1.061 F15
G01 X   0.895 Y   0.940 F15
G01 X   1.000 Y   0.879 F15
G01 Y   0.875 F15
G01 X   1.108 Y   0.938 F15
G01 Y   1.063 F15
G01 X   1.000 Y   1.125 F15
G01 X   0.892 Y   1.063 F15
G01 Y   0.938 F15
G01 X   1.000 Y   0.875 F15
%
G00 Z   0.100 (retract) 
G00 X0 Y0 (HOME) 
G01 X   1.500 Y   1.278 F15
G01 Z  -0.200 F5 (plung)
G01 X   1.712 Y   1.431 F15
G01 X   1.631 Y   1.680 F15
G01 X   1.369 F15
G01 X   1.288 Y   1.431 F15
G01 X   1.500 Y   1.278 F15
%
